d:\ProjectsAQA\tests\QAAuto\src\main\java\com\lesson4\task1\Main.java
d:\ProjectsAQA\tests\QAAuto\src\main\java\com\lesson4\task1\Dog.java
d:\ProjectsAQA\tests\QAAuto\src\main\java\com\lesson4\task1\Cat.java
d:\ProjectsAQA\tests\QAAuto\src\main\java\com\lesson4\task1\IPet.java
